Mineria de Datos I
…
1) Lectura e inspeccin de datos. Tipo de variables, distribuciones,
valores extraos, etc

tibble(datos)

## # A tibble: 6,353 x 21
##    ID      Genero Mayor65 Conyuge PersCargo Antig.fc.edad Telf_serv VariasLineas
##    <fct>   <fct>  <fct>   <fct>   <fct>             <dbl> <fct>     <fct>       
##  1 7590-V~ Female 0       Yes     No                    1 No        No          
##  2 5575-G~ Male   0       No      No                   34 Yes       No          
##  3 3668-Q~ Male   0       No      No                    2 Yes       No          
##  4 7795-C~ <NA>   0       No      No                   45 No        No          
##  5 9237-H~ Female 0       No      No                   NA Yes       No          
##  6 9305-C~ Female 0       No      No                    8 Yes       Yes         
##  7 1452-K~ Male   0       No      Yes                  22 Yes       Yes         
##  8 6713-O~ Female 0       No      No                   10 No        No          
##  9 7892-P~ <NA>   0       Yes     No                   28 Yes       Yes         
## 10 6388-T~ Male   0       No      Yes                  62 Yes       No          
## # ... with 6,343 more rows, and 13 more variables: Int_serv <fct>,
## #   Seguridad <fct>, CopiaSeguridad <fct>, Antivirus_disp <fct>,
## #   Soporte_tecnico <fct>, TV_streaming <fct>, Peliculas <fct>, Contrato <fct>,
## #   Fact_sinPapel <fct>, MetodoPago <fct>, FacturaMes <dbl>,
## #   FacturaTotal <dbl>, Fuga <fct>
…
